﻿[
  {"school": "武汉大学", "longitude": "114.368758", "latitude": "30.55004", "address": "湖北省武汉市武昌区珞珈山路16号","zan":"123","distance":"527米","imageID":"0x7f020052"},
  {"school": "华中科技大学", "longitude": "114.420207", "latitude": "30.515337", "address": "湖北省武汉市洪山区珞瑜路1037","zan":"123","distance":"527米","imageID":"0x7f020053"},
  {"school": "武汉科技大学", "longitude": "114.346835", "latitude": "30.522136", "address": "武汉市洪山区雄楚大道199号","zan":"123","distance":"527米","imageID":"0x7f020054"},
  {"school": "长江大学", "longitude": "114.036339", "latitude": "30.537121", "address": "姚家林村大学路特1号","zan":"123","distance":"527米","imageID":"0x7f020055"},
  {"school": "武汉工程大学", "longitude": "114.396742", "latitude": "30.510516", "address": "武汉市洪山区雄楚大道693号","zan":"123","distance":"527米","imageID":"0x7f020056"},
  {"school": "中国地质大学（武汉）", "longitude": "114.407704", "latitude": "30.52595	", "address": "鲁磨路388号","zan":"123","distance":"527米","imageID":"0x7f020057"},
  {"school": "武汉纺织大学", "longitude": "114.404834", "latitude": "30.491587", "address": "武汉市洪山区纺织路1号","zan":"123","distance":"527米","imageID":"0x7f020058"},
  {"school": "武汉轻工大学", "longitude": "114.24519", "latitude": "30.642901	", "address": "学府南路68号","zan":"123","distance":"527米","imageID":"0x7f020059"},
  {"school": "武汉理工大学", "longitude": "114.36234", "latitude": "30.6131", "address": "湖北省武汉市武昌区友谊大道1178号","zan":"123","distance":"527米","imageID":"0x7f02005a"},
  {"school": "湖北工业大学", "longitude": "114.317827", "latitude": "30.486724", "address": "湖北省武汉市洪山区南李路28号","zan":"123","distance":"527米","imageID":"0x7f02005b"},
  {"school": "华中农业大学", "longitude": "114.364494", "latitude": "30.480121", "address": "湖北省武汉市洪山区狮子山街特一号","zan":"123","distance":"527米","imageID":"0x7f02005c"},
  {"school": "湖北中医药大学", "longitude": "114.275633", "latitude": "30.458924", "address": "洪山区青菱乡青菱村黄家湖西路1号","zan":"123","distance":"527米","imageID":"0x7f02005d"},
  {"school": "华中师范大学", "longitude": "114.369487", "latitude": "30.522385", "address": "珞喻路152号(近卓刀泉南路)","zan":"123","distance":"527米","imageID":"0x7f02005e"},
  {"school": "湖北大学", "longitude": "114.338564", "latitude": "30.584806", "address": "湖北省武汉市武昌区友谊大道368号","zan":"123","distance":"527米","imageID":"0x7f02005f"},
  {"school": "湖北师范学院", "longitude": "115.07037", "latitude": "30.236969	", "address": "湖北省黄石市黄石港区","zan":"123","distance":"527米","imageID":"0x7f020060"},
  {"school": "黄冈师范学院", "longitude": "114.932223", "latitude": "30.457052", "address": "黄冈市黄州区新港二路43号","zan":"123","distance":"527米","imageID":"0x7f020061"},
  {"school": "湖北民族学院", "longitude": "109.50727", "latitude": "30.296004	", "address": "学院路39号","zan":"123","distance":"527米","imageID":"0x7f020062"},
  {"school": "湖北文理学院", "longitude": "113.938368", "latitude": "30.946895", "address": "湖北省孝感市孝南区城站路","zan":"123","distance":"527米","imageID":"0x7f020063"},
  {"school": "中南财经政法大学", "longitude": "114.393462", "latitude": "30.480586", "address": "湖北省武汉市洪山区南湖大道182号","zan":"123","distance":"527米","imageID":"0x7f020064"},
  {"school": "武汉体育学院", "longitude": "114.384322", "latitude": "30.526088", "address": "武汉市洪山区珞瑜路461号","zan":"123","distance":"527米","imageID":"0x7f020065"},
  {"school": "湖北美术学院", "longitude": "114.323535", "latitude": "30.553698", "address": "湖北武汉市武昌区中山路374号","zan":"123","distance":"527米","imageID":"0x7f020066"},
  {"school": "中南民族大学", "longitude": "114.399116", "latitude": "30.493083", "address": "湖北省武汉市洪山区民族大道182号","zan":"123","distance":"527米","imageID":"0x7f020067"},
  {"school": "湖北汽车工业学院", "longitude": "	110.74689", "latitude": "32.656782", "address": "	车城西路167号","zan":"123","distance":"527米","imageID":"0x7f020068"},
  {"school": "湖北工程学院", "longitude": "	113.922259", "latitude": "30.941253	", "address": "湖北省孝感市交通大道272号","zan":"123","distance":"527米","imageID":"0x7f020069"},
  {"school": "湖北理工学院", "longitude": "	115.032438", "latitude": "30.214695	", "address": "湖北省黄石市桂林北路16号","zan":"123","distance":"527米","imageID":"0x7f02006a"},
  {"school": "湖北科技学院", "longitude": "	114.342773", "latitude": "29.854983	", "address": "咸宁大道88号","zan":"123","distance":"527米","imageID":"0x7f02006b"},
  {"school": "湖北医药学院", "longitude": "	114.345648", "latitude": "29.854045	", "address": "咸宁大道88号","zan":"123","distance":"527米","imageID":"0x7f02006c"},
  {"school": "江汉大学", "longitude": "	114.165961", "latitude": "30.518764	", "address": "湖北省武汉市蔡甸区三角湖路8号","zan":"123","distance":"527米","imageID":"0x7f02006d"},
  {"school": "三峡大学", "longitude": "	111.318497", "latitude": "30.720627	", "address": "大学路8号","zan":"123","distance":"527米","imageID":"0x7f02006e"},
  {"school": "湖北警官学院", "longitude": "	114.21083", "latitude": "30.607869	", "address": "南泥湾大道99号","zan":"123","distance":"527米","imageID":"0x7f02006f"},
  {"school": "荆楚理工学院", "longitude": "	112.20238", "latitude": "31.049673	", "address": "湖北省荆门市象山大道33号","zan":"123","distance":"527米","imageID":"0x7f020070"},
  {"school": "武汉音乐学院", "longitude": "	114.30409", "latitude": "30.543466	", "address": "湖北省武汉市武昌区解放路255号","zan":"123","distance":"527米","imageID":"0x7f020071"},
  {"school": "湖北经济学院", "longitude": "	114.442464", "latitude": "30.42388	", "address": "湖北省武汉市江夏区藏龙岛开发区杨桥湖大道8号","zan":"123","distance":"527米","imageID":"0x7f020072"},
  {"school": "武汉商学院", "longitude": "	114.093478", "latitude": "30.466721", "address": "东风大道816号","zan":"123","distance":"527米","imageID":"0x7f020073"},
  {"school": "武汉东湖学院", "longitude": "	114.323385", "latitude": "30.428191", "address": "文化路特一号","zan":"123","distance":"527米","imageID":"0x7f020074"},
  {"school": "汉口学院", "longitude": "	114.327293", "latitude": "30.421969", "address": "文化大道299号","zan":"123","distance":"527米","imageID":"0x7f020075"},
  {"school": "武昌首义学院", "longitude": "	114.315268", "latitude": "30.495334", "address": "南李路22号","zan":"123","distance":"527米","imageID":"0x7f020076"},
  {"school": "武昌理工学院", "longitude": "	114.376434", "latitude": "30.423147", "address": "湖北省武汉江夏大道16号","zan":"123","distance":"527米","imageID":"0x7f020077"},
  {"school": "武汉生物工程学院", "longitude": "	114.53454", "latitude": "30.714317	", "address": "武汉市阳逻经济开发区汉施路1号","zan":"123","distance":"527米","imageID":"0x7f020078"},
  {"school": "武汉大学珞珈学院", "longitude": "	114.318716", "latitude": "30.44695	", "address": "湖北省武汉市江夏区武昌大道59号附近","zan":"123","distance":"527米","imageID":"0x7f020079"},
  {"school": "湖北大学知行学院", "longitude": "	114.379047", "latitude": "30.695423", "address": "谌家矶街兴谌大道特1号","zan":"123","distance":"527米","imageID":"0x7f02007a"},
  {"school": "武汉科技大学城市学院", "longitude": "114.432545", "latitude": "30.59262", "address": "黄家大湾1","zan":"123","distance":"527米","imageID":"0x7f02007b"},
  {"school": "三峡大学科技学院", "longitude": "111.326765", "latitude": "30.729083", "address": "湖北省宜昌市大学路18号","zan":"123","distance":"527米","imageID":"0x7f02007c"},
  {"school": "江汉大学文理学院", "longitude": "114.165459", "latitude": "30.525314", "address": "武汉经济技术开发区博学路9号","zan":"123","distance":"527米","imageID":"0x7f02007d"},
  {"school": "湖北工业大学工程技术学院", "longitude": "	114.314214", "latitude": "30.483973", "address": "湖北工业大学内","zan":"123","distance":"527米","imageID":"0x7f02007e"},
  {"school": "武汉工程大学邮电与信息工程学院", "longitude": "114.396296", "latitude": "30.51079", "address": "武汉市洪山区","zan":"123","distance":"527米","imageID":"0x7f02007f"},
  {"school": "武汉纺织大学外贸学院", "longitude": "	114.379522", "latitude": "30.584809", "address": "东湖梨园特1号","zan":"123","distance":"527米","imageID":"0x7f020080"},
  {"school": "武昌工学院", "longitude": "114.291961", "latitude": "30.491255", "address": "洪山区白沙洲大道110号原白沙洲张家湾","zan":"123","distance":"527米","imageID":"0x7f020081"},
  {"school": "武汉工商学院", "longitude": "114.278843", "latitude": "30.464301", "address": "黄家湖西路3号","zan":"123","distance":"527米","imageID":"0x7f020082"},
  {"school": "长江大学工程技术学院", "longitude": "	114.322598", "latitude": "30.408577", "address": "长江大学工程技术学院","zan":"123","distance":"527米","imageID":"0x7f020083"},
  {"school": "长江大学文理学院", "longitude": "	112.190452", "latitude": "30.356265", "address": "湖北省荆州市荆州城郢都路18号","zan":"123","distance":"527米","imageID":"0x7f020084"},
  {"school": "湖北商贸学院", "longitude": "	114.385156", "latitude": "30.509421", "address": "湖北省武汉市洪山区雄楚大街634号","zan":"123","distance":"527米","imageID":"0x7f020085"},
  {"school": "湖北汽车工业工业学院科技学院", "longitude": "110.746926", "latitude": "32.653895	", "address": "车城西路167号","zan":"123","distance":"527米","imageID":"0x7f020086"},
  {"school": "湖北医药学院药护学院", "longitude": "110.795851", "latitude": "32.626566", "address": "湖北省十堰市人民南路30号","zan":"123","distance":"527米","imageID":"0x7f020087"},
  {"school": "湖北民族学院科技学院", "longitude": "109.510749", "latitude": "30.30405	", "address": "恩施市学院路湖北民族学院内(学院路)","zan":"123","distance":"527米","imageID":"0x7f020088"},
  {"school": "湖北经济学院法商学院", "longitude": "114.43728", "latitude": "30.423167	", "address": "武汉市江夏区藏龙岛开发区杨桥湖大道8号","zan":"123","distance":"527米","imageID":"0x7f020089"},
  {"school": "武汉体育学院体育科技学院", "longitude": "114.440137", "latitude": "30.404003", "address": "藏龙大道与环岛路交叉处附近","zan":"123","distance":"527米","imageID":"0x7f02008a"},
  {"school": "湖北师范学院文理学院", "longitude": "115.045847", "latitude": "30.197554", "address": "桂林南路42号","zan":"123","distance":"527米","imageID":"0x7f02008b"},
  {"school": "湖北文理学院理工学院", "longitude": "112.091379", "latitude": "31.952062", "address": "尹集东街28号","zan":"123","distance":"527米","imageID":"0x7f02008c"},
  {"school": "湖北工程学院新技术学院", "longitude": "113.913039", "latitude": "30.93826", "address": "湖北省孝感市学院路158号","zan":"123","distance":"527米","imageID":"0x7f02008d"},
  {"school": "文华学院", "longitude": "114.444249", "latitude": "30.500936", "address": "武汉高新技术开发区文华园路8号","zan":"123","distance":"527米","imageID":"0x7f02008e"},
  {"school": "武汉学院", "longitude": "114.304984", "latitude": "30.44567	", "address": "湖北省武汉市江夏区黄家湖大道","zan":"123","distance":"527米","imageID":"0x7f02008f"},
  {"school": "武汉工程科技学院", "longitude": "114.341807", "latitude": "30.355513", "address": "湖北省武汉市江夏区纸坊熊廷弼路特8号","zan":"123","distance":"527米","imageID":"0x7f020090"},
  {"school": "武汉理工大学华夏学院", "longitude": "114.418332", "latitude": "30.472473", "address": "湖北省武汉市洪山区关山大道589号","zan":"123","distance":"527米","imageID":"0x7f020091"},
  {"school": "华中师范大学武汉传媒学院", "longitude": "	114.427777", "": "30.445774", "address": "武汉市江夏区藏龙岛凤凰大道特一号","zan":"123","distance":"527米","imageID":"0x7f020092"},
  {"school": "武汉设计工程学院", "longitude": "114.415912", "latitude": "30.407552", "address": "杨桥湖大道1","zan":"123","distance":"527米","imageID":"0x7f020093"},
  {"school": "湖北第二师范学院", "longitude": "114.456428", "latitulatitudede": "30.486307", "address": "武汉市东湖新技术开发区高新二路129号","zan":"123","distance":"527米","imageID":"0x7f020094"},
  {"school": "勋阳师范高等专科学校", "longitude": "111.549", "latitude": "32.56191", "address": "郧阳师范高等专科学校附近","zan":"123","distance":"527米","imageID":"0x7f020095"},
  {"school": "武汉职业技术学院", "longitude": "114.417408", "latitude": "30.490447", "address": "洪山区关山大道463号","zan":"123","distance":"527米","imageID":"0x7f020096"},
  {"school": "黄冈职业技术学院", "longitude": "115.003059", "latitude": "30.438581", "address": "南湖教育区桃园街","zan":"123","distance":"527米","imageID":"0x7f0200973"}
]